Uncertainty aggregation • REddyProc
…
  summarise(
    DateTime = first(DateTime)
    ,nEff = lognorm::computeEffectiveNumObs(
       resid, effAcf = !!autoCorr, na.rm = TRUE)
    , nRec = sum(is.finite(NEE_orig_sd))
    , NEE = mean(NEE_uStar_f, na.rm = TRUE)
    , sdNEE = if (nEff <= 1) NA_real_ else sqrt(
      mean(NEE_orig_sd^2, na.rm = TRUE) / (nEff - 1)) 
    , sdNEEuncorr = if (nRec <= 1) NA_real_ else sqrt(
       mean(NEE_orig_sd^2, na.rm = TRUE) / (nRec - 1))
    , .groups = "drop_last"
  )
aggDay

## # A tibble: 365 × 7
##      DoY DateTime             nEff  nRec      NEE  sdNEE sdNEEuncorr
##    <int> <dttm>              <dbl> <int>    <dbl>  <dbl>       <dbl>
##  1     0 1998-01-01 00:30:00 11.0     21  0.124    0.760       0.536
##  2     1 1998-01-02 00:30:00  3.66     7  0.00610  1.56        1.04 
##  3     2 1998-01-03 00:30:00  0        0  0.0484  NA          NA    
##  4     3 1998-01-04 00:30:00  0        0  0.303   NA          NA    
##  5     4 1998-01-05 00:30:00 10.9     28  0.195    0.861       0.521
##  6     5 1998-01-06 00:30:00 18.0     48  0.926    0.615       0.370
##  7     6 1998-01-07 00:30:00 18.0     48 -0.337    0.566       0.340
##  8     7 1998-01-08 00:30:00 17.7     46 -0.139    0.525       0.320
##  9     8 1998-01-09 00:30:00 17.5     45  0.614    0.474       0.290
## 10     9 1998-01-10 00:30:00 15.4     36  0.242    0.641       0.411
## # ℹ 355 more rows
…
